24  
18
OO++OOOOO+OO+++OO++OOOOO
O++O+O+OO+O++O+OO+OOO++O
O+O+OO+O+OO+O+OO+O+O+OOO
OO+OOO+O+OOO+O+O+O+OO+O+
+++++O++OOO+O+OO+O+OO+OO
OOO+OOO+O+OOO+OOO+O+OOO+
O+O+O+++O+O+O+O+++O+O+O+
O+O+OOO+OOO+O+OOO+OOO+O+
++O+++O++O++O+++O++O++O+
OOO+OO+O+OO+O+OOOO+OO+O+
+++++O++O++++++O+OOO+O+O
OOO+OOO+O+OOOOOOO+O+OOO+
O+O+O+++O+O+O+O+++O+O+O+
O+O+OOO+OOO+O+OOO+OOO+O+
++O+++O++O++O+++O++O++O+
O+OOOOO++OO+OO+OO++OO+OS
O+O++O+OOOO+O++O+OOOO+O+
+++++O+OO+++O++O+OO+++OE


